M48
; DRILL file {KiCad 7.0.6} date So 16 Jul 2023 22:20:33 CEST
; FORMAT={-:-/ absolute / metric / decimal}
; #@! TF.CreationDate,2023-07-16T22:20:33+02:00
; #@! TF.GenerationSoftware,Kicad,Pcbnew,7.0.6
; #@! TF.FileFunction,NonPlated,1,2,NPTH
FMAT,2
METRIC
; #@! TA.AperFunction,NonPlated,NPTH,ComponentDrill
T1C3.000
%
G90
G05
T1
G00X35.501Y91.975
M15
G01X34.501Y91.975
M16
G05
G00X35.501Y38.975
M15
G01X34.501Y38.975
M16
G05
T0
M30
