(kicad_symbol_lib (version 20211014) (generator kicad_symbol_editor)
  (symbol "10067847" (pin_names (offset 2.54)) (in_bom yes) (on_board yes)
    (property "Reference" "J" (id 0) (at 17.78 26.67 0)
      (effects (font (size 1.524 1.524)))
    )
    (property "Value" "10067847" (id 1) (at 2.54 -3.81 0)
      (effects (font (size 0.254 0.254)) hide)
    )
    (property "Footprint" "" (id 2) (at 0 0 0)
      (effects (font (size 1.524 1.524)))
    )
    (property "Datasheet" "" (id 3) (at 0 0 0)
      (effects (font (size 1.524 1.524)))
    )
    (symbol "10067847_0_0"
      (rectangle (start 5.08 29.21) (end 33.02 -1.27)
        (stroke (width 0) (type default) (color 0 0 0 0))
        (fill (type none))
      )
      (text "10067847" (at 17.145 17.145 0)
        (effects (font (size 1.27 1.27)) (justify left bottom))
      )
      (text "Amphenol" (at 17.145 20.32 0)
        (effects (font (size 1.27 1.27)) (justify left))
      )
      (text "SD-CARD-SLOT" (at 16.51 22.86 0)
        (effects (font (size 1.27 1.27)) (justify left bottom))
      )
      (pin bidirectional line (at 0 0 0) (length 5.08)
        (name "~{CS}" (effects (font (size 1.524 1.524))))
        (number "1" (effects (font (size 1.524 1.524))))
      )
      (pin bidirectional line (at 0 2.54 0) (length 5.08)
        (name "DI" (effects (font (size 1.524 1.524))))
        (number "2" (effects (font (size 1.524 1.524))))
      )
      (pin power_in line (at 0 5.08 0) (length 5.08)
        (name "GND" (effects (font (size 1.524 1.524))))
        (number "3" (effects (font (size 1.524 1.524))))
      )
      (pin power_in line (at 0 7.62 0) (length 5.08)
        (name "VDD" (effects (font (size 1.524 1.524))))
        (number "4" (effects (font (size 1.524 1.524))))
      )
      (pin bidirectional line (at 0 10.16 0) (length 5.08)
        (name "CLK" (effects (font (size 1.524 1.524))))
        (number "5" (effects (font (size 1.524 1.524))))
      )
      (pin power_in line (at 0 12.7 0) (length 5.08)
        (name "GND" (effects (font (size 1.524 1.524))))
        (number "6" (effects (font (size 1.524 1.524))))
      )
      (pin bidirectional line (at 0 15.24 0) (length 5.08)
        (name "DO" (effects (font (size 1.524 1.524))))
        (number "7" (effects (font (size 1.524 1.524))))
      )
      (pin bidirectional line (at 0 17.78 0) (length 5.08)
        (name "NC" (effects (font (size 1.524 1.524))))
        (number "8" (effects (font (size 1.524 1.524))))
      )
      (pin bidirectional line (at 0 20.32 0) (length 5.08)
        (name "NC" (effects (font (size 1.524 1.524))))
        (number "9" (effects (font (size 1.524 1.524))))
      )
      (pin bidirectional line (at 0 25.4 0) (length 5.08)
        (name "CD" (effects (font (size 1.524 1.524))))
        (number "CD" (effects (font (size 0 0))))
      )
      (pin bidirectional line (at 17.78 -6.35 90) (length 5.08)
        (name "GND" (effects (font (size 1.524 1.524))))
        (number "GND1" (effects (font (size 0 0))))
      )
      (pin power_in line (at 20.32 -6.35 90) (length 5.08)
        (name "GND" (effects (font (size 1.524 1.524))))
        (number "GND2" (effects (font (size 0 0))))
      )
      (pin power_in line (at 22.86 -6.35 90) (length 5.08)
        (name "GND" (effects (font (size 1.524 1.524))))
        (number "GND3" (effects (font (size 0 0))))
      )
      (pin bidirectional line (at 25.4 -6.35 90) (length 5.08)
        (name "GND" (effects (font (size 1.524 1.524))))
        (number "GND4" (effects (font (size 0 0))))
      )
      (pin bidirectional line (at 0 27.94 0) (length 5.08)
        (name "WP" (effects (font (size 1.524 1.524))))
        (number "WP" (effects (font (size 0 0))))
      )
    )
  )
)
