%TF.GenerationSoftware,KiCad,Pcbnew,7.0.1*%
%TF.CreationDate,2023-05-05T22:21:16+02:00*%
%TF.ProjectId,iec-rounded,6965632d-726f-4756-9e64-65642e6b6963,rev?*%
%TF.SameCoordinates,PX2255100PY510ff40*%
%TF.FileFunction,Copper,L2,Bot*%
%TF.FilePolarity,Positive*%
%FSLAX46Y46*%
G04 Gerber Fmt 4.6, Leading zero omitted, Abs format (unit mm)*
G04 Created by KiCad (PCBNEW 7.0.1) date 2023-05-05 22:21:16*
%MOMM*%
%LPD*%
G01*
G04 APERTURE LIST*
%TA.AperFunction,ComponentPad*%
%ADD10R,1.700000X1.700000*%
%TD*%
%TA.AperFunction,ComponentPad*%
%ADD11O,1.700000X1.700000*%
%TD*%
%TA.AperFunction,ComponentPad*%
%ADD12R,1.600000X1.600000*%
%TD*%
%TA.AperFunction,ComponentPad*%
%ADD13O,1.600000X1.600000*%
%TD*%
%TA.AperFunction,ComponentPad*%
%ADD14C,1.981200*%
%TD*%
%TA.AperFunction,ComponentPad*%
%ADD15C,2.000000*%
%TD*%
%TA.AperFunction,ComponentPad*%
%ADD16R,1.500000X1.500000*%
%TD*%
%TA.AperFunction,ComponentPad*%
%ADD17O,1.500000X1.500000*%
%TD*%
%TA.AperFunction,ComponentPad*%
%ADD18C,1.500000*%
%TD*%
%TA.AperFunction,ViaPad*%
%ADD19C,0.800000*%
%TD*%
%TA.AperFunction,Conductor*%
%ADD20C,0.600000*%
%TD*%
%TA.AperFunction,Conductor*%
%ADD21C,0.500000*%
%TD*%
%TA.AperFunction,Conductor*%
%ADD22C,0.250000*%
%TD*%
G04 APERTURE END LIST*
D10*
%TO.P,J1,1,Pin_1*%
%TO.N,GND*%
X5450000Y24950000D03*
D11*
%TO.P,J1,2,Pin_2*%
X2910000Y24950000D03*
%TO.P,J1,3,Pin_3*%
%TO.N,/E*%
X5450000Y27490000D03*
%TO.P,J1,4,Pin_4*%
%TO.N,/~{FIRQ}*%
X2910000Y27490000D03*
%TO.P,J1,5,Pin_5*%
%TO.N,/R~{W}*%
X5450000Y30030000D03*
%TO.P,J1,6,Pin_6*%
%TO.N,/~{IRQ}*%
X2910000Y30030000D03*
%TO.P,J1,7,Pin_7*%
%TO.N,/~{RESET}*%
X5450000Y32570000D03*
%TO.P,J1,8,Pin_8*%
%TO.N,/~{CS}*%
X2910000Y32570000D03*
%TO.P,J1,9,Pin_9*%
%TO.N,/D7*%
X5450000Y35110000D03*
%TO.P,J1,10,Pin_10*%
%TO.N,/MRDY*%
X2910000Y35110000D03*
%TO.P,J1,11,Pin_11*%
%TO.N,/D6*%
X5450000Y37650000D03*
%TO.P,J1,12,Pin_12*%
%TO.N,/A6*%
X2910000Y37650000D03*
%TO.P,J1,13,Pin_13*%
%TO.N,/D5*%
X5450000Y40190000D03*
%TO.P,J1,14,Pin_14*%
%TO.N,/A5*%
X2910000Y40190000D03*
%TO.P,J1,15,Pin_15*%
%TO.N,/D4*%
X5450000Y42730000D03*
%TO.P,J1,16,Pin_16*%
%TO.N,/A4*%
X2910000Y42730000D03*
%TO.P,J1,17,Pin_17*%
%TO.N,/D3*%
X5450000Y45270000D03*
%TO.P,J1,18,Pin_18*%
%TO.N,/A3*%
X2910000Y45270000D03*
%TO.P,J1,19,Pin_19*%
%TO.N,/D2*%
X5450000Y47810000D03*
%TO.P,J1,20,Pin_20*%
%TO.N,/A2*%
X2910000Y47810000D03*
%TO.P,J1,21,Pin_21*%
%TO.N,/D1*%
X5450000Y50350000D03*
%TO.P,J1,22,Pin_22*%
%TO.N,/A1*%
X2910000Y50350000D03*
%TO.P,J1,23,Pin_23*%
%TO.N,/D0*%
X5450000Y52890000D03*
%TO.P,J1,24,Pin_24*%
%TO.N,/A0*%
X2910000Y52890000D03*
%TO.P,J1,25,Pin_25*%
%TO.N,VCC*%
X5450000Y55430000D03*
%TO.P,J1,26,Pin_26*%
X2910000Y55430000D03*
%TD*%
D12*
%TO.P,U1,1,A0*%
%TO.N,/A0*%
X25770000Y19870000D03*
D13*
%TO.P,U1,2,A1*%
%TO.N,/A1*%
X23230000Y19870000D03*
%TO.P,U1,3,A2*%
%TO.N,/A2*%
X20690000Y19870000D03*
%TO.P,U1,4,E1*%
%TO.N,/~{CS}*%
X18150000Y19870000D03*
%TO.P,U1,5,E2*%
X15610000Y19870000D03*
%TO.P,U1,6,E3*%
%TO.N,/R~{W}*%
X13070000Y19870000D03*
%TO.P,U1,7,O7*%
%TO.N,Net-(U1-O7)*%
X10530000Y19870000D03*
%TO.P,U1,8,GND*%
%TO.N,GND*%
X7990000Y19870000D03*
%TO.P,U1,9,O6*%
%TO.N,Net-(U1-O6)*%
X7990000Y12250000D03*
%TO.P,U1,10,O5*%
%TO.N,Net-(U1-O5)*%
X10530000Y12250000D03*
%TO.P,U1,11,O4*%
%TO.N,Net-(U1-O4)*%
X13070000Y12250000D03*
%TO.P,U1,12,O3*%
%TO.N,Net-(U1-O3)*%
X15610000Y12250000D03*
%TO.P,U1,13,O2*%
%TO.N,Net-(U1-O2)*%
X18150000Y12250000D03*
%TO.P,U1,14,O1*%
%TO.N,unconnected-(U1-O1-Pad14)*%
X20690000Y12250000D03*
%TO.P,U1,15,O0*%
%TO.N,/~{RD}*%
X23230000Y12250000D03*
%TO.P,U1,16,VCC*%
%TO.N,VCC*%
X25770000Y12250000D03*
%TD*%
D14*
%TO.P,J2,*%
%TO.N,*%
X24420000Y54414000D03*
X21920000Y55350000D03*
X16920000Y55350000D03*
X14420000Y54414000D03*
%TO.P,J2,1*%
%TO.N,unconnected-(J2-Pad1)*%
X11920000Y45350000D03*
%TO.P,J2,2*%
%TO.N,GND*%
X14420000Y42850000D03*
%TO.P,J2,3*%
%TO.N,/ATN*%
X19420000Y45350000D03*
%TO.P,J2,4*%
%TO.N,/CLK*%
X24420000Y42850000D03*
%TO.P,J2,5*%
%TO.N,/DTA*%
X26920000Y45350000D03*
%TO.P,J2,6*%
%TO.N,/~{RESET}*%
X19420000Y40350000D03*
%TD*%
D15*
%TO.P,C2,1*%
%TO.N,VCC*%
X28310000Y12290000D03*
%TO.P,C2,2*%
%TO.N,GND*%
X28310000Y17290000D03*
%TD*%
D16*
%TO.P,U2,1*%
%TO.N,/~{RD}*%
X25770000Y30030000D03*
D17*
%TO.P,U2,2*%
%TO.N,/DTA*%
X23230000Y30030000D03*
D13*
%TO.P,U2,3*%
%TO.N,/D1*%
X20690000Y30030000D03*
%TO.P,U2,4*%
%TO.N,/~{RD}*%
X18150000Y30030000D03*
%TO.P,U2,5*%
%TO.N,/CLK*%
X15610000Y30030000D03*
%TO.P,U2,6*%
%TO.N,/D0*%
X13070000Y30030000D03*
%TO.P,U2,7,GND*%
%TO.N,GND*%
X10530000Y30030000D03*
%TO.P,U2,8*%
%TO.N,/D7*%
X10530000Y22410000D03*
%TO.P,U2,9*%
%TO.N,/ATN*%
X13070000Y22410000D03*
%TO.P,U2,10*%
%TO.N,/~{RD}*%
X15610000Y22410000D03*
%TO.P,U2,11*%
%TO.N,unconnected-(U2-Pad11)*%
X18150000Y22410000D03*
%TO.P,U2,12*%
%TO.N,GND*%
X20690000Y22410000D03*
%TO.P,U2,13*%
%TO.N,VCC*%
X23230000Y22410000D03*
%TO.P,U2,14,VCC*%
X25770000Y22410000D03*
%TD*%
D15*
%TO.P,C1,1*%
%TO.N,VCC*%
X28310000Y19910000D03*
%TO.P,C1,2*%
%TO.N,GND*%
X28310000Y24910000D03*
%TD*%
D12*
%TO.P,RN1,1,R1.1*%
%TO.N,VCC*%
X28310000Y27470000D03*
D13*
%TO.P,RN1,2,R1.2*%
%TO.N,/DTA*%
X28310000Y30010000D03*
%TO.P,RN1,3,R2.2*%
%TO.N,/CLK*%
X28310000Y32550000D03*
%TO.P,RN1,4,R3.2*%
%TO.N,/ATN*%
X28310000Y35090000D03*
%TO.P,RN1,5*%
%TO.N,N/C*%
X28310000Y37630000D03*
%TD*%
D15*
%TO.P,C3,1*%
%TO.N,VCC*%
X28310000Y2130000D03*
%TO.P,C3,2*%
%TO.N,GND*%
X28310000Y7130000D03*
%TD*%
D16*
%TO.P,Q2,1,D*%
%TO.N,/CLK*%
X18150000Y32570000D03*
D18*
%TO.P,Q2,2,G*%
%TO.N,/CLKOUT*%
X18150000Y35110000D03*
%TO.P,Q2,3,S*%
%TO.N,GND*%
X18150000Y37650000D03*
%TD*%
D16*
%TO.P,Q1,1,D*%
%TO.N,/DTA*%
X23230000Y32570000D03*
D18*
%TO.P,Q1,2,G*%
%TO.N,/DTAOUT*%
X23230000Y35110000D03*
%TO.P,Q1,3,S*%
%TO.N,GND*%
X23230000Y37650000D03*
%TD*%
D16*
%TO.P,Q3,1,D*%
%TO.N,/ATN*%
X13070000Y32570000D03*
D18*
%TO.P,Q3,2,G*%
%TO.N,/ATNOUT*%
X13070000Y35110000D03*
%TO.P,Q3,3,S*%
%TO.N,GND*%
X13070000Y37650000D03*
%TD*%
D12*
%TO.P,U3,1,1R*%
%TO.N,Net-(U1-O2)*%
X25770000Y9710000D03*
D13*
%TO.P,U3,2,1S1*%
%TO.N,Net-(U1-O3)*%
X23230000Y9710000D03*
%TO.P,U3,3,1S2*%
X20690000Y9710000D03*
%TO.P,U3,4,1Q*%
%TO.N,/DTAOUT*%
X18150000Y9710000D03*
%TO.P,U3,5,2R*%
%TO.N,Net-(U1-O4)*%
X15610000Y9710000D03*
%TO.P,U3,6,2S*%
%TO.N,Net-(U1-O5)*%
X13070000Y9710000D03*
%TO.P,U3,7,2Q*%
%TO.N,/CLKOUT*%
X10530000Y9710000D03*
%TO.P,U3,8,GND*%
%TO.N,GND*%
X7990000Y9710000D03*
%TO.P,U3,9,3Q*%
%TO.N,/ATNOUT*%
X7990000Y2090000D03*
%TO.P,U3,10,3R*%
%TO.N,Net-(U1-O6)*%
X10530000Y2090000D03*
%TO.P,U3,11,3S1*%
%TO.N,Net-(U1-O7)*%
X13070000Y2090000D03*
%TO.P,U3,12,3S2*%
X15610000Y2090000D03*
%TO.P,U3,13,4Q*%
%TO.N,unconnected-(U3-4Q-Pad13)*%
X18150000Y2090000D03*
%TO.P,U3,14,4R*%
%TO.N,VCC*%
X20690000Y2090000D03*
%TO.P,U3,15,4S*%
X23230000Y2090000D03*
%TO.P,U3,16,VCC*%
X25770000Y2090000D03*
%TD*%
D19*
%TO.N,/~{CS}*%
X17769000Y28379000D03*
%TO.N,/A0*%
X10165289Y24977289D03*
%TO.N,/A1*%
X9238366Y24055042D03*
%TO.N,/A2*%
X12057946Y21143946D03*
%TO.N,/CLKOUT*%
X17800000Y14950000D03*
%TO.N,/ATNOUT*%
X11536313Y26240956D03*
%TD*%
D20*
%TO.N,GND*%
X9773103Y18086896D02*
X7990000Y19870000D01*
X20715481Y24910000D02*
X16776981Y24910000D01*
X20715481Y24910000D02*
X20838518Y24910000D01*
X10530000Y30030000D02*
X5450000Y24950000D01*
X9773103Y7926896D02*
X7990000Y9710000D01*
D21*
X20690000Y24761482D02*
X20690000Y22410000D01*
D20*
X11696981Y7130000D02*
X28310000Y7130000D01*
X11696981Y17290000D02*
X28310000Y17290000D01*
X20838518Y24910000D02*
X28310000Y24910000D01*
X18150000Y37650000D02*
X23230000Y37650000D01*
X18150000Y37650000D02*
X13070000Y37650000D01*
X14853103Y25706897D02*
X10530000Y30030000D01*
D21*
X20733531Y24866469D02*
G75*
G03*
X20715481Y24910000I-18031J18031D01*
G01*
D20*
X20838518Y24909992D02*
G75*
G03*
X20733500Y24866500I-18J-148492D01*
G01*
X14853107Y25706901D02*
G75*
G03*
X16776981Y24910000I1923893J1923899D01*
G01*
X9773107Y18086900D02*
G75*
G03*
X11696981Y17290000I1923893J1923900D01*
G01*
D21*
X20733495Y24866505D02*
G75*
G03*
X20690000Y24761482I105005J-105005D01*
G01*
D20*
X9773107Y7926900D02*
G75*
G03*
X11696981Y7130000I1923893J1923900D01*
G01*
%TO.N,VCC*%
X28241715Y12250000D02*
X25770000Y12250000D01*
X28290000Y2110000D02*
X28310000Y2130000D01*
X23230000Y2090000D02*
X20690000Y2090000D01*
X23230000Y2090000D02*
X25770000Y2090000D01*
X28241715Y2090000D02*
X25770000Y2090000D01*
X2910000Y55430000D02*
X5450000Y55430000D01*
X28290000Y12270000D02*
X28310000Y12290000D01*
X28241715Y2089994D02*
G75*
G03*
X28290000Y2110000I-15J68306D01*
G01*
X28241715Y12249994D02*
G75*
G03*
X28290000Y12270000I-15J68306D01*
G01*
D22*
%TO.N,/DTA*%
X26546896Y31773104D02*
X28310000Y30010000D01*
X24623018Y32570000D02*
X23230000Y32570000D01*
X26546892Y31773100D02*
G75*
G03*
X24623018Y32570000I-1923892J-1923900D01*
G01*
%TO.N,/CLK*%
X27665000Y33195000D02*
X28310000Y32550000D01*
X18785000Y33205000D02*
X18150000Y32570000D01*
X20318025Y33840000D02*
X26107832Y33840000D01*
X20318025Y33839989D02*
G75*
G03*
X18785000Y33205000I-25J-2167989D01*
G01*
X27664991Y33194991D02*
G75*
G03*
X26107832Y33840000I-1557191J-1557191D01*
G01*
%TO.N,/ATN*%
X24203103Y40566897D02*
X19420000Y45350000D01*
X24446084Y36380000D02*
X18006981Y36380000D01*
X24446084Y36380000D02*
X24940000Y36380000D01*
X26107832Y36380000D02*
X25553916Y36380000D01*
X27665000Y35735000D02*
X28310000Y35090000D01*
X25060000Y36380000D02*
X24940000Y36380000D01*
X25042426Y36542427D02*
X25106857Y36606857D01*
X16083103Y35583103D02*
X13070000Y32570000D01*
X25060000Y36380000D02*
X25553916Y36380000D01*
X25000000Y36933916D02*
X25000000Y38643019D01*
X25000000Y36933916D02*
G75*
G03*
X25553916Y36380000I553900J-16D01*
G01*
X24446084Y36380000D02*
G75*
G03*
X25000000Y36933916I16J553900D01*
G01*
X18006981Y36380005D02*
G75*
G03*
X16083103Y35583103I19J-2720805D01*
G01*
X25000000Y36440000D02*
G75*
G03*
X25060000Y36380000I60000J0D01*
G01*
X25042417Y36542436D02*
G75*
G03*
X25000000Y36440000I102483J-102436D01*
G01*
X25000005Y38643019D02*
G75*
G03*
X24203103Y40566897I-2720805J-19D01*
G01*
X27664991Y35734991D02*
G75*
G03*
X26107832Y36380000I-1557191J-1557191D01*
G01*
X24940000Y36380000D02*
G75*
G03*
X25000000Y36440000I0J60000D01*
G01*
%TO.N,/~{RD}*%
X23849504Y28905000D02*
X20070495Y28905000D01*
X18712500Y29467500D02*
X18150000Y30030000D01*
X25207500Y29467500D02*
X25770000Y30030000D01*
X23849504Y28904998D02*
G75*
G03*
X25207500Y29467500I-4J1920502D01*
G01*
X18712501Y29467501D02*
G75*
G03*
X20070495Y28905000I1357999J1357999D01*
G01*
%TO.N,/~{CS}*%
X16421495Y30809495D02*
X16624104Y30606885D01*
X18150000Y19870000D02*
X15610000Y19870000D01*
X17769000Y28379000D02*
X17388000Y28760000D01*
X17007000Y29679815D02*
X17007000Y29682495D01*
X15007962Y31395000D02*
X4915850Y31395000D01*
X3497500Y31982500D02*
X2910000Y32570000D01*
X3497485Y31982485D02*
G75*
G03*
X4915850Y31395000I1418315J1418315D01*
G01*
X17006991Y29682495D02*
G75*
G03*
X16624104Y30606885I-1307291J5D01*
G01*
X16421506Y30809506D02*
G75*
G03*
X15007962Y31395000I-1413506J-1413506D01*
G01*
X17007007Y29679815D02*
G75*
G03*
X17388000Y28760000I1300793J-15D01*
G01*
%TO.N,/~{RESET}*%
X12433103Y39553103D02*
X5450000Y32570000D01*
X14356981Y40350000D02*
X19420000Y40350000D01*
X14356981Y40350005D02*
G75*
G03*
X12433103Y39553103I19J-2720805D01*
G01*
%TO.N,/A0*%
X25062500Y20577500D02*
X25770000Y19870000D01*
X10511184Y24631394D02*
X10165289Y24977289D01*
X18662387Y23488603D02*
X19338025Y22812965D01*
X19791974Y21717035D02*
X19894504Y21614505D01*
X20689998Y21285000D02*
X23354443Y21285000D01*
X11346248Y24285499D02*
X16738509Y24285499D01*
X25062487Y20577487D02*
G75*
G03*
X23354443Y21285000I-1708087J-1708087D01*
G01*
X18662387Y23488603D02*
G75*
G03*
X16738509Y24285499I-1923887J-1923903D01*
G01*
X10511201Y24631411D02*
G75*
G03*
X11346248Y24285499I835099J835089D01*
G01*
X19894504Y21614505D02*
G75*
G03*
X20689998Y21285000I795496J795495D01*
G01*
X19565011Y22265000D02*
G75*
G03*
X19338025Y22812965I-774911J0D01*
G01*
X19564989Y22265000D02*
G75*
G03*
X19791975Y21717036I774911J0D01*
G01*
%TO.N,/A1*%
X22667500Y19307500D02*
X23230000Y19870000D01*
X9238395Y24055012D02*
X9238366Y24055042D01*
X10647785Y18745000D02*
X21309504Y18745000D01*
X9238425Y24054941D02*
X9238425Y20154360D01*
X21309504Y18744998D02*
G75*
G03*
X22667500Y19307500I-4J1920502D01*
G01*
X9238402Y20154360D02*
G75*
G03*
X9651218Y19157793I1409398J40D01*
G01*
X9651216Y19157791D02*
G75*
G03*
X10647785Y18745000I996584J996609D01*
G01*
X9238439Y24054946D02*
G75*
G03*
X9238394Y24055011I-139J-46D01*
G01*
%TO.N,/A2*%
X20053027Y20506973D02*
X20690000Y19870000D01*
X18515238Y21143946D02*
X12057946Y21143946D01*
X20053005Y20506951D02*
G75*
G03*
X18515238Y21143946I-1537805J-1537751D01*
G01*
%TO.N,/CLKOUT*%
X10453204Y14153104D02*
X9738076Y13437976D01*
X9738076Y10501924D02*
X10530000Y9710000D01*
X17800000Y14950000D02*
X12377082Y14950000D01*
X12377082Y14950005D02*
G75*
G03*
X10453204Y14153104I18J-2720805D01*
G01*
X9130035Y11969950D02*
G75*
G03*
X9738076Y10501924I2076065J-50D01*
G01*
X9738052Y13438000D02*
G75*
G03*
X9130000Y11969950I1468048J-1468000D01*
G01*
%TO.N,/ATNOUT*%
X7427500Y2652500D02*
X7990000Y2090000D01*
X7661896Y24535636D02*
X8600324Y25474064D01*
X10451764Y26240956D02*
X11536313Y26240956D01*
X6865000Y22611758D02*
X6865000Y4010495D01*
X6864998Y4010495D02*
G75*
G03*
X7427500Y2652500I1920502J5D01*
G01*
X7661870Y24535662D02*
G75*
G03*
X6865000Y22611758I1923930J-1923862D01*
G01*
X10451764Y26240973D02*
G75*
G03*
X8600325Y25474063I36J-2618373D01*
G01*
%TO.N,Net-(U1-O5)*%
X13070000Y9710000D02*
X10530000Y12250000D01*
%TO.N,Net-(U1-O4)*%
X15610000Y9710000D02*
X13070000Y12250000D01*
%TO.N,Net-(U1-O3)*%
X22989256Y9710000D02*
X23013460Y9710000D01*
X21461066Y9710000D02*
X21401753Y9710000D01*
X21494430Y9710000D02*
X21487016Y9710000D01*
X21253471Y9710000D02*
X21238643Y9710000D01*
X21357269Y9710000D02*
X21342441Y9710000D01*
X21861430Y9710000D02*
X21713147Y9710000D01*
X22876736Y9710000D02*
X22856458Y9710000D01*
X20215495Y9710000D02*
X20219202Y9710000D01*
X20315584Y9710000D02*
X20334119Y9710000D01*
X20452745Y9710000D02*
X20393432Y9710000D01*
X21342441Y9710000D02*
X21327613Y9710000D01*
X20541716Y9710000D02*
X20526887Y9710000D01*
X20764139Y9710000D02*
X20689998Y9710000D01*
X21664955Y9710000D02*
X21613056Y9710000D01*
X20512058Y9710000D02*
X20497229Y9710000D01*
X22784493Y9710000D02*
X22712528Y9710000D01*
X20601029Y9710000D02*
X20556544Y9710000D01*
X20245151Y9710000D02*
X20230323Y9710000D01*
X21713147Y9710000D02*
X21664955Y9710000D01*
X20849403Y9710000D02*
X21005099Y9710000D01*
X20274807Y9710000D02*
X20259979Y9710000D01*
X22112635Y9710000D02*
X22065535Y9710000D01*
X20315584Y9710000D02*
X20293342Y9710000D01*
X21609349Y9710000D02*
X21613056Y9710000D01*
X23141684Y9710000D02*
X23169814Y9710000D01*
X21520379Y9710000D02*
X21501844Y9710000D01*
X23141684Y9710000D02*
X23077572Y9710000D01*
X22308877Y9710000D02*
X22162349Y9710000D01*
X21327613Y9710000D02*
X21312785Y9710000D01*
X21609349Y9710000D02*
X21564864Y9710000D01*
X20393432Y9710000D02*
X20334119Y9710000D01*
X22065535Y9710000D02*
X22018435Y9710000D01*
X20601029Y9710000D02*
X20615857Y9710000D01*
X21086654Y9710000D02*
X21005099Y9710000D01*
X21564864Y9710000D02*
X21520379Y9710000D01*
X21861430Y9710000D02*
X21924235Y9710000D01*
X21360976Y9710000D02*
X21357269Y9710000D01*
X20526887Y9710000D02*
X20512058Y9710000D01*
X21164502Y9710000D02*
X21090361Y9710000D01*
X20497229Y9710000D02*
X20493523Y9710000D01*
X21501844Y9710000D02*
X21494430Y9710000D01*
X21312785Y9710000D02*
X21297956Y9710000D01*
X16317499Y11542500D02*
X15610000Y12250000D01*
X21383218Y9710000D02*
X21360976Y9710000D01*
X20493523Y9710000D02*
X20471281Y9710000D01*
X22712528Y9710000D02*
X22620286Y9710000D01*
X20226616Y9710000D02*
X20219202Y9710000D01*
X20849403Y9710000D02*
X20767847Y9710000D01*
X20259979Y9710000D02*
X20245151Y9710000D01*
X22856458Y9710000D02*
X22784493Y9710000D01*
X20289635Y9710000D02*
X20274807Y9710000D01*
X21401753Y9710000D02*
X21383218Y9710000D01*
X20556544Y9710000D02*
X20541716Y9710000D01*
X22989256Y9710000D02*
X22876736Y9710000D01*
X22620286Y9710000D02*
X22363837Y9710000D01*
X20226616Y9710000D02*
X20230323Y9710000D01*
X23209938Y9710000D02*
X23169814Y9710000D01*
X22018435Y9710000D02*
X21971335Y9710000D01*
X22112635Y9710000D02*
X22162349Y9710000D01*
X22363837Y9710000D02*
X22308877Y9710000D01*
X19405465Y10045525D02*
X19033490Y10417499D01*
X20764139Y9710000D02*
X20767847Y9710000D01*
X20293342Y9710000D02*
X20289635Y9710000D01*
X21971335Y9710000D02*
X21924235Y9710000D01*
X21090361Y9710000D02*
X21086654Y9710000D01*
X20452745Y9710000D02*
X20471281Y9710000D01*
X21461066Y9710000D02*
X21487016Y9710000D01*
X21238643Y9710000D02*
X21164502Y9710000D01*
X20689998Y9710000D02*
X20615857Y9710000D01*
X21297956Y9710000D02*
X21253471Y9710000D01*
X23209938Y9710000D02*
X23230000Y9710000D01*
X23077572Y9710000D02*
X23013460Y9710000D01*
X19405458Y10045518D02*
G75*
G03*
X20215495Y9710000I810042J810082D01*
G01*
X16317501Y11542502D02*
G75*
G03*
X17675495Y10980000I1357999J1357998D01*
G01*
X19033494Y10417503D02*
G75*
G03*
X17675495Y10980000I-1357994J-1358003D01*
G01*
%TO.N,Net-(U1-O2)*%
X25062500Y10417500D02*
X25770000Y9710000D01*
X20070495Y11125000D02*
X23354443Y11125000D01*
X18712500Y11687500D02*
X18150000Y12250000D01*
X25062487Y10417487D02*
G75*
G03*
X23354443Y11125000I-1708087J-1708087D01*
G01*
X18712501Y11687501D02*
G75*
G03*
X20070495Y11125000I1357999J1357999D01*
G01*
%TD*%
%TA.AperFunction,Conductor*%
%TO.N,VCC*%
G36*
X27928180Y13207481D02*
G01*
X27932013Y13202572D01*
X28309136Y12294487D01*
X28310031Y12290000D01*
X28309136Y12285513D01*
X27931961Y11377305D01*
X27928163Y11372422D01*
X27922406Y11370159D01*
X27916299Y11371148D01*
X27666581Y11485093D01*
X27665866Y11485449D01*
X27462810Y11595431D01*
X27462386Y11595672D01*
X27296246Y11694833D01*
X27147071Y11780902D01*
X26994820Y11851629D01*
X26994817Y11851630D01*
X26819332Y11904835D01*
X26819330Y11904836D01*
X26819328Y11904836D01*
X26600438Y11938348D01*
X26564609Y11939826D01*
X26329173Y11949538D01*
X26321214Y11953126D01*
X26317956Y11961227D01*
X26317956Y12538892D01*
X26321171Y12546948D01*
X26329049Y12550576D01*
X26604039Y12564864D01*
X26604039Y12564865D01*
X26823551Y12606888D01*
X26997648Y12672225D01*
X27147483Y12757025D01*
X27294212Y12857439D01*
X27294215Y12857434D01*
X27294230Y12857452D01*
X27458701Y12969423D01*
X27459307Y12969806D01*
X27662516Y13089447D01*
X27663449Y13089940D01*
X27916236Y13208676D01*
X27922372Y13209727D01*
X27928180Y13207481D01*
G37*
%TD.AperFunction*%
%TD*%
%TA.AperFunction,Conductor*%
%TO.N,Net-(U1-O3)*%
G36*
X22673556Y10266460D02*
G01*
X22960242Y9980280D01*
X23222705Y9718280D01*
X23225739Y9713031D01*
X23225739Y9706968D01*
X23222705Y9701720D01*
X22673557Y9153542D01*
X22667894Y9150415D01*
X22661435Y9150776D01*
X22656156Y9154513D01*
X22627641Y9190151D01*
X22603933Y9219784D01*
X22602637Y9221796D01*
X22588849Y9248950D01*
X22564499Y9296910D01*
X22563879Y9298370D01*
X22538588Y9371539D01*
X22538479Y9371871D01*
X22517688Y9439721D01*
X22492961Y9498344D01*
X22455690Y9544292D01*
X22455689Y9544293D01*
X22455688Y9544294D01*
X22397215Y9574275D01*
X22319167Y9583751D01*
X22311819Y9587607D01*
X22308877Y9595366D01*
X22308877Y9824634D01*
X22311819Y9832392D01*
X22319167Y9836249D01*
X22344650Y9839344D01*
X22397214Y9845726D01*
X22455690Y9875709D01*
X22492961Y9921657D01*
X22517688Y9980280D01*
X22538484Y10048148D01*
X22538582Y10048446D01*
X22563881Y10121638D01*
X22564496Y10123088D01*
X22602638Y10198210D01*
X22603928Y10200213D01*
X22656158Y10265491D01*
X22661436Y10269225D01*
X22667895Y10269586D01*
X22673556Y10266460D01*
G37*
%TD.AperFunction*%
%TD*%
%TA.AperFunction,Conductor*%
%TO.N,Net-(U1-O4)*%
G36*
X13809592Y12549587D02*
G01*
X13813159Y12544422D01*
X13887430Y12329683D01*
X13887815Y12328305D01*
X13928495Y12137979D01*
X13928673Y12136902D01*
X13948086Y11972164D01*
X13948113Y11971908D01*
X13962311Y11823373D01*
X13987411Y11681971D01*
X14023905Y11581527D01*
X14039573Y11538404D01*
X14134964Y11383233D01*
X14144931Y11371887D01*
X14282519Y11215258D01*
X14285423Y11207158D01*
X14282002Y11199263D01*
X14120737Y11037998D01*
X14112842Y11034577D01*
X14104742Y11037481D01*
X14018606Y11113146D01*
X13936767Y11185036D01*
X13913624Y11199263D01*
X13781598Y11280426D01*
X13781597Y11280427D01*
X13781596Y11280427D01*
X13738473Y11296095D01*
X13638029Y11332589D01*
X13521727Y11353234D01*
X13496628Y11357689D01*
X13475382Y11359720D01*
X13348092Y11371887D01*
X13347836Y11371914D01*
X13183098Y11391327D01*
X13182021Y11391505D01*
X12991695Y11432185D01*
X12990317Y11432570D01*
X12775578Y11506841D01*
X12770413Y11510408D01*
X12767836Y11516131D01*
X12768587Y11522363D01*
X12834483Y11681971D01*
X13067438Y12246216D01*
X13069979Y12250021D01*
X13073784Y12252562D01*
X13797637Y12551414D01*
X13803869Y12552164D01*
X13809592Y12549587D01*
G37*
%TD.AperFunction*%
%TD*%
%TA.AperFunction,Conductor*%
%TO.N,/~{CS}*%
G36*
X17844738Y20602586D02*
G01*
X17848613Y20597649D01*
X18149134Y19874491D01*
X18150030Y19870001D01*
X18149134Y19865511D01*
X17848613Y19142352D01*
X17844738Y19137415D01*
X17838869Y19135190D01*
X17832696Y19136319D01*
X17628325Y19235650D01*
X17627080Y19236352D01*
X17463741Y19342163D01*
X17462854Y19342798D01*
X17332632Y19445563D01*
X17332432Y19445725D01*
X17217371Y19540710D01*
X17217367Y19540713D01*
X17099631Y19622951D01*
X16961231Y19687583D01*
X16784057Y19729853D01*
X16784056Y19729854D01*
X16560944Y19744292D01*
X16553164Y19747966D01*
X16550000Y19755968D01*
X16550000Y19984032D01*
X16553164Y19992034D01*
X16560944Y19995708D01*
X16610802Y19998936D01*
X16784057Y20010148D01*
X16961231Y20052418D01*
X17099631Y20117051D01*
X17217367Y20199288D01*
X17332521Y20294350D01*
X17332577Y20294395D01*
X17462864Y20397212D01*
X17463731Y20397833D01*
X17627088Y20503655D01*
X17628320Y20504350D01*
X17832698Y20603683D01*
X17838869Y20604811D01*
X17844738Y20602586D01*
G37*
%TD.AperFunction*%
%TD*%
%TA.AperFunction,Conductor*%
%TO.N,VCC*%
G36*
X23547127Y2824165D02*
G01*
X23744640Y2735309D01*
X23745203Y2735037D01*
X23908386Y2650267D01*
X23908641Y2650130D01*
X24042764Y2575280D01*
X24163572Y2511514D01*
X24286816Y2460002D01*
X24428381Y2421846D01*
X24604148Y2398145D01*
X24818722Y2390407D01*
X24826721Y2386838D01*
X24830000Y2378715D01*
X24830000Y1801285D01*
X24826721Y1793162D01*
X24818722Y1789594D01*
X24761223Y1787520D01*
X24604151Y1781857D01*
X24428382Y1758156D01*
X24286814Y1719999D01*
X24163573Y1668488D01*
X24087569Y1628371D01*
X24042764Y1604721D01*
X23970694Y1564502D01*
X23908668Y1529887D01*
X23908360Y1529721D01*
X23745218Y1444973D01*
X23744624Y1444686D01*
X23547129Y1355837D01*
X23541039Y1354878D01*
X23535307Y1357148D01*
X23531525Y1362017D01*
X23230864Y2085515D01*
X23229969Y2090000D01*
X23230864Y2094486D01*
X23531526Y2817987D01*
X23535307Y2822853D01*
X23541039Y2825123D01*
X23547127Y2824165D01*
G37*
%TD.AperFunction*%
%TD*%
%TA.AperFunction,Conductor*%
%TO.N,/~{RESET}*%
G36*
X19041804Y41258639D02*
G01*
X19045691Y41253691D01*
X19419136Y40354487D01*
X19420031Y40350000D01*
X19419136Y40345513D01*
X19045691Y39446310D01*
X19041804Y39441362D01*
X19035917Y39439142D01*
X19029731Y39440294D01*
X18772471Y39566559D01*
X18771144Y39567322D01*
X18745150Y39584621D01*
X18568546Y39702149D01*
X18567612Y39702840D01*
X18406972Y39834951D01*
X18406727Y39835159D01*
X18265354Y39958081D01*
X18120649Y40065106D01*
X17949901Y40149600D01*
X17730239Y40205066D01*
X17680403Y40208475D01*
X17449701Y40224255D01*
X17441949Y40227941D01*
X17438800Y40235927D01*
X17438800Y40464073D01*
X17441949Y40472059D01*
X17449701Y40475746D01*
X17730238Y40494935D01*
X17949901Y40550402D01*
X18120652Y40634898D01*
X18265353Y40741920D01*
X18406768Y40864880D01*
X18406940Y40865026D01*
X18567612Y40997163D01*
X18568546Y40997854D01*
X18771154Y41132686D01*
X18772461Y41133438D01*
X19029733Y41259708D01*
X19035917Y41260859D01*
X19041804Y41258639D01*
G37*
%TD.AperFunction*%
%TD*%
%TA.AperFunction,Conductor*%
%TO.N,/ATNOUT*%
G36*
X11384097Y26604190D02*
G01*
X11387909Y26599308D01*
X11535436Y26245459D01*
X11536337Y26240957D01*
X11535436Y26236455D01*
X11387909Y25882605D01*
X11384097Y25877723D01*
X11378328Y25875471D01*
X11372218Y25876479D01*
X11324686Y25898365D01*
X11278306Y25919720D01*
X11277513Y25920123D01*
X11196256Y25965306D01*
X11195760Y25965597D01*
X11129282Y26006965D01*
X11129282Y26006966D01*
X11069650Y26043304D01*
X11039781Y26058095D01*
X11008730Y26073471D01*
X10938353Y26096355D01*
X10938350Y26096356D01*
X10850287Y26110877D01*
X10747492Y26115458D01*
X10739558Y26119059D01*
X10736313Y26127146D01*
X10736313Y26354766D01*
X10739558Y26362853D01*
X10747492Y26366454D01*
X10821898Y26369772D01*
X10850290Y26371037D01*
X10938353Y26385559D01*
X11008730Y26408442D01*
X11069647Y26438608D01*
X11088949Y26450371D01*
X11129282Y26474948D01*
X11129329Y26474977D01*
X11195773Y26516326D01*
X11196256Y26516609D01*
X11277513Y26561792D01*
X11278293Y26562189D01*
X11372221Y26605435D01*
X11378328Y26606442D01*
X11384097Y26604190D01*
G37*
%TD.AperFunction*%
%TD*%
%TA.AperFunction,Conductor*%
%TO.N,/A0*%
G36*
X10552993Y24977311D02*
G01*
X10559006Y24975635D01*
X10563301Y24971104D01*
X10564656Y24965010D01*
X10563020Y24933216D01*
X10562922Y24932191D01*
X10557757Y24895378D01*
X10557684Y24894928D01*
X10551920Y24862969D01*
X10547987Y24834270D01*
X10548361Y24807373D01*
X10555464Y24780504D01*
X10571730Y24751888D01*
X10592431Y24728016D01*
X10595285Y24719936D01*
X10591865Y24712078D01*
X10430500Y24550713D01*
X10422642Y24547293D01*
X10414562Y24550147D01*
X10390690Y24570848D01*
X10390687Y24570850D01*
X10375321Y24579584D01*
X10362074Y24587114D01*
X10335205Y24594217D01*
X10308308Y24594591D01*
X10308307Y24594591D01*
X10301797Y24593699D01*
X10279609Y24590658D01*
X10247650Y24584894D01*
X10247200Y24584821D01*
X10210387Y24579656D01*
X10209362Y24579558D01*
X10177568Y24577922D01*
X10171474Y24579277D01*
X10166943Y24583572D01*
X10165267Y24589586D01*
X10165051Y24712078D01*
X10164602Y24966258D01*
X10166166Y24972120D01*
X10170458Y24976412D01*
X10176320Y24977976D01*
X10552993Y24977311D01*
G37*
%TD.AperFunction*%
%TD*%
%TA.AperFunction,Conductor*%
%TO.N,/DTA*%
G36*
X27275257Y31222520D02*
G01*
X27443233Y31074965D01*
X27492394Y31044743D01*
X27598402Y30979574D01*
X27741968Y30927413D01*
X27883370Y30902313D01*
X28031939Y30888113D01*
X28032136Y30888092D01*
X28196915Y30868674D01*
X28197961Y30868501D01*
X28388313Y30827815D01*
X28389672Y30827435D01*
X28604422Y30753160D01*
X28609586Y30749593D01*
X28612163Y30743870D01*
X28611412Y30737638D01*
X28312562Y30013788D01*
X28310020Y30009980D01*
X28306212Y30007438D01*
X27582362Y29708588D01*
X27576130Y29707837D01*
X27570407Y29710414D01*
X27566840Y29715579D01*
X27492565Y29930328D01*
X27492185Y29931687D01*
X27451499Y30122039D01*
X27451326Y30123085D01*
X27431908Y30287864D01*
X27431884Y30288094D01*
X27417687Y30436630D01*
X27392587Y30578032D01*
X27340426Y30721598D01*
X27245034Y30876768D01*
X27235066Y30888116D01*
X27097480Y31044743D01*
X27094576Y31052843D01*
X27097996Y31060737D01*
X27259263Y31222004D01*
X27267157Y31225424D01*
X27275257Y31222520D01*
G37*
%TD.AperFunction*%
%TD*%
%TA.AperFunction,Conductor*%
%TO.N,GND*%
G36*
X8729748Y10009872D02*
G01*
X8733376Y10004888D01*
X8810207Y9802396D01*
X8810423Y9801773D01*
X8865843Y9626525D01*
X8865944Y9626190D01*
X8907858Y9478420D01*
X8948186Y9347928D01*
X8998913Y9224347D01*
X9072031Y9097271D01*
X9179558Y8956224D01*
X9325814Y8799025D01*
X9328946Y8790844D01*
X9325521Y8782782D01*
X8917218Y8374479D01*
X8909156Y8371054D01*
X8900975Y8374186D01*
X8743776Y8520442D01*
X8602729Y8627969D01*
X8475653Y8701087D01*
X8352072Y8751814D01*
X8221580Y8792142D01*
X8073810Y8834056D01*
X8073475Y8834157D01*
X7928544Y8879990D01*
X7898221Y8889579D01*
X7897610Y8889791D01*
X7695111Y8966625D01*
X7690128Y8970252D01*
X7687680Y8975911D01*
X7688447Y8982025D01*
X7987438Y9706216D01*
X7989979Y9710021D01*
X7993784Y9712562D01*
X8717975Y10011553D01*
X8724089Y10012320D01*
X8729748Y10009872D01*
G37*
%TD.AperFunction*%
%TD*%
%TA.AperFunction,Conductor*%
%TO.N,Net-(U1-O4)*%
G36*
X14575257Y10922520D02*
G01*
X14743233Y10774965D01*
X14792394Y10744743D01*
X14898402Y10679574D01*
X15041968Y10627413D01*
X15183370Y10602313D01*
X15331939Y10588113D01*
X15332136Y10588092D01*
X15496915Y10568674D01*
X15497961Y10568501D01*
X15688313Y10527815D01*
X15689672Y10527435D01*
X15904422Y10453160D01*
X15909586Y10449593D01*
X15912163Y10443870D01*
X15911412Y10437638D01*
X15612562Y9713788D01*
X15610020Y9709980D01*
X15606212Y9707438D01*
X14882362Y9408588D01*
X14876130Y9407837D01*
X14870407Y9410414D01*
X14866840Y9415579D01*
X14792565Y9630328D01*
X14792185Y9631687D01*
X14751499Y9822039D01*
X14751326Y9823085D01*
X14731908Y9987864D01*
X14731884Y9988094D01*
X14717687Y10136630D01*
X14692587Y10278032D01*
X14640426Y10421598D01*
X14545034Y10576768D01*
X14535066Y10588116D01*
X14397480Y10744743D01*
X14394576Y10752843D01*
X14397996Y10760737D01*
X14559263Y10922004D01*
X14567157Y10925424D01*
X14575257Y10922520D01*
G37*
%TD.AperFunction*%
%TD*%
%TA.AperFunction,Conductor*%
%TO.N,GND*%
G36*
X18447973Y38338026D02*
G01*
X18631844Y38256091D01*
X18632338Y38255857D01*
X18739715Y38201645D01*
X18785245Y38178658D01*
X18785473Y38178540D01*
X18911547Y38111379D01*
X18987387Y38073772D01*
X19025311Y38054966D01*
X19141336Y38009994D01*
X19141341Y38009993D01*
X19141343Y38009992D01*
X19274344Y37977085D01*
X19373137Y37964961D01*
X19438997Y37956877D01*
X19523868Y37954111D01*
X19638681Y37950369D01*
X19646707Y37946812D01*
X19650000Y37938675D01*
X19650000Y37361325D01*
X19646707Y37353188D01*
X19638681Y37349632D01*
X19615217Y37348867D01*
X19438997Y37343125D01*
X19274347Y37322917D01*
X19141336Y37290008D01*
X19025311Y37245036D01*
X18911541Y37188619D01*
X18785473Y37121463D01*
X18785245Y37121345D01*
X18632347Y37044150D01*
X18631836Y37043907D01*
X18447973Y36961975D01*
X18441894Y36961036D01*
X18436178Y36963311D01*
X18432407Y36968171D01*
X18298633Y37290008D01*
X18150865Y37645513D01*
X18149970Y37650000D01*
X18150865Y37654488D01*
X18432408Y38331832D01*
X18436178Y38336690D01*
X18441894Y38338965D01*
X18447973Y38338026D01*
G37*
%TD.AperFunction*%
%TD*%
%TA.AperFunction,Conductor*%
%TO.N,/DTA*%
G36*
X23982730Y33312742D02*
G01*
X23987991Y33308577D01*
X24060365Y33205112D01*
X24060373Y33205101D01*
X24060377Y33205096D01*
X24140754Y33100701D01*
X24221131Y33006813D01*
X24221137Y33006807D01*
X24301508Y32923434D01*
X24362909Y32867768D01*
X24381886Y32850563D01*
X24462263Y32788200D01*
X24542640Y32736346D01*
X24587299Y32713374D01*
X24616670Y32698265D01*
X24621306Y32693955D01*
X24623018Y32687861D01*
X24623018Y32452139D01*
X24621306Y32446045D01*
X24616670Y32441735D01*
X24542645Y32403658D01*
X24462258Y32351798D01*
X24381883Y32289436D01*
X24301508Y32216568D01*
X24221137Y32133195D01*
X24140759Y32039306D01*
X24060365Y31934890D01*
X23987991Y31831424D01*
X23982730Y31827259D01*
X23976045Y31826670D01*
X23970136Y31829851D01*
X23237290Y32561721D01*
X23234257Y32566969D01*
X23234257Y32573031D01*
X23237290Y32578279D01*
X23353120Y32693955D01*
X23970137Y33310152D01*
X23976045Y33313331D01*
X23982730Y33312742D01*
G37*
%TD.AperFunction*%
%TD*%
%TA.AperFunction,Conductor*%
%TO.N,Net-(U1-O3)*%
G36*
X21622558Y9789902D02*
G01*
X21627800Y9786788D01*
X21630763Y9781457D01*
X21630641Y9775359D01*
X21599643Y9669059D01*
X21595876Y9663325D01*
X21555524Y9629893D01*
X21555525Y9629892D01*
X21569822Y9622644D01*
X21574961Y9617511D01*
X21576081Y9610335D01*
X21572750Y9603880D01*
X21566252Y9600635D01*
X21510145Y9592296D01*
X21408433Y9508023D01*
X21406553Y9506751D01*
X21113901Y9347786D01*
X21112324Y9347075D01*
X20768861Y9221834D01*
X20766744Y9221280D01*
X20425982Y9165473D01*
X20422143Y9165482D01*
X20138063Y9213447D01*
X20131597Y9216854D01*
X20126785Y9221834D01*
X19954466Y9400159D01*
X19951908Y9404228D01*
X19951202Y9408982D01*
X19963036Y9606952D01*
X19964814Y9612485D01*
X19969037Y9616481D01*
X20169052Y9727476D01*
X20173264Y9728852D01*
X20500452Y9769821D01*
X20502252Y9769905D01*
X20881500Y9757922D01*
X20882555Y9757840D01*
X21240198Y9713007D01*
X21241199Y9712836D01*
X21404181Y9677414D01*
X21461065Y9665051D01*
X21461066Y9665051D01*
X21461066Y9819585D01*
X21463206Y9826329D01*
X21468842Y9830607D01*
X21475912Y9830854D01*
X21622558Y9789902D01*
G37*
%TD.AperFunction*%
%TD*%
%TA.AperFunction,Conductor*%
%TO.N,/CLKOUT*%
G36*
X9834692Y10583236D02*
G01*
X9914052Y10514982D01*
X9992220Y10472146D01*
X10065731Y10454883D01*
X10065731Y10454884D01*
X10065732Y10454883D01*
X10139345Y10456274D01*
X10217818Y10469401D01*
X10305648Y10487290D01*
X10306181Y10487385D01*
X10407825Y10503097D01*
X10408950Y10503215D01*
X10517658Y10509309D01*
X10523775Y10507972D01*
X10528328Y10503671D01*
X10530010Y10497637D01*
X10530696Y9721014D01*
X10529130Y9715157D01*
X10524843Y9710870D01*
X10518986Y9709304D01*
X9742363Y9709990D01*
X9736329Y9711672D01*
X9732028Y9716225D01*
X9730691Y9722342D01*
X9736785Y9831050D01*
X9736904Y9832178D01*
X9752614Y9933811D01*
X9752712Y9934359D01*
X9770599Y10022182D01*
X9783726Y10100655D01*
X9785117Y10174268D01*
X9767854Y10247779D01*
X9767854Y10247780D01*
X9725018Y10325948D01*
X9656764Y10405308D01*
X9653943Y10413376D01*
X9657361Y10421209D01*
X9818791Y10582639D01*
X9826624Y10586057D01*
X9834692Y10583236D01*
G37*
%TD.AperFunction*%
%TD*%
%TA.AperFunction,Conductor*%
%TO.N,GND*%
G36*
X22943821Y38336690D02*
G01*
X22947592Y38331830D01*
X23229133Y37654492D01*
X23230029Y37650001D01*
X23229133Y37645510D01*
X22947592Y36968171D01*
X22943821Y36963311D01*
X22938105Y36961036D01*
X22932026Y36961975D01*
X22748162Y37043907D01*
X22747651Y37044150D01*
X22594752Y37121345D01*
X22594524Y37121463D01*
X22513831Y37164448D01*
X22468452Y37188622D01*
X22429922Y37207728D01*
X22354687Y37245036D01*
X22238661Y37290008D01*
X22105650Y37322917D01*
X21941000Y37343125D01*
X21764908Y37348863D01*
X21741318Y37349632D01*
X21733293Y37353188D01*
X21730000Y37361325D01*
X21730000Y37938675D01*
X21733293Y37946812D01*
X21741318Y37950369D01*
X21885505Y37955069D01*
X21941000Y37956877D01*
X21973929Y37960919D01*
X22105654Y37977085D01*
X22238655Y38009992D01*
X22238658Y38009994D01*
X22238661Y38009994D01*
X22354687Y38054966D01*
X22355908Y38055572D01*
X22468452Y38111379D01*
X22594550Y38178554D01*
X22594720Y38178642D01*
X22747676Y38255865D01*
X22748138Y38256084D01*
X22932027Y38338027D01*
X22938105Y38338965D01*
X22943821Y38336690D01*
G37*
%TD.AperFunction*%
%TD*%
%TA.AperFunction,Conductor*%
%TO.N,GND*%
G36*
X6696027Y26606053D02*
G01*
X7106416Y26195664D01*
X7109784Y26188566D01*
X7107903Y26180939D01*
X7011536Y26035171D01*
X6909859Y25868473D01*
X6808237Y25688979D01*
X6706583Y25496534D01*
X6604946Y25291234D01*
X6503297Y25073023D01*
X6401631Y24841876D01*
X6304485Y24608687D01*
X6298157Y24602374D01*
X6289218Y24602372D01*
X5453784Y24947438D01*
X5449978Y24949979D01*
X5447438Y24953783D01*
X5102929Y25787868D01*
X5102212Y25794316D01*
X5105040Y25800155D01*
X5110544Y25803589D01*
X5296791Y25856530D01*
X5495665Y25925950D01*
X5694539Y26008260D01*
X5893413Y26103461D01*
X6092286Y26211553D01*
X6291160Y26332536D01*
X6490034Y26466409D01*
X6680807Y26607195D01*
X6688629Y26609447D01*
X6696027Y26606053D01*
G37*
%TD.AperFunction*%
%TD*%
%TA.AperFunction,Conductor*%
%TO.N,GND*%
G36*
X9802025Y30331553D02*
G01*
X10308626Y30122396D01*
X10526212Y30032563D01*
X10530020Y30030021D01*
X10532562Y30026213D01*
X10831551Y29302028D01*
X10832319Y29295911D01*
X10829871Y29290252D01*
X10824887Y29286624D01*
X10622394Y29209793D01*
X10621771Y29209577D01*
X10446523Y29154157D01*
X10446188Y29154056D01*
X10298417Y29112142D01*
X10167925Y29071814D01*
X10044344Y29021087D01*
X9917268Y28947969D01*
X9776221Y28840442D01*
X9619024Y28694186D01*
X9610843Y28691054D01*
X9602781Y28694479D01*
X9194478Y29102782D01*
X9191053Y29110844D01*
X9194184Y29119024D01*
X9340439Y29276223D01*
X9447966Y29417268D01*
X9521086Y29544350D01*
X9571809Y29667921D01*
X9612143Y29798434D01*
X9654071Y29946256D01*
X9654128Y29946445D01*
X9709588Y30121812D01*
X9709778Y30122360D01*
X9786625Y30324891D01*
X9790251Y30329872D01*
X9795910Y30332320D01*
X9802025Y30331553D01*
G37*
%TD.AperFunction*%
%TD*%
%TA.AperFunction,Conductor*%
%TO.N,/~{RESET}*%
G36*
X6571439Y33852724D02*
G01*
X6732723Y33691440D01*
X6736144Y33683552D01*
X6733249Y33675455D01*
X6575922Y33495949D01*
X6475098Y33330450D01*
X6420622Y33177201D01*
X6420621Y33177197D01*
X6395114Y33026193D01*
X6395113Y33026185D01*
X6395113Y33026183D01*
X6381216Y32867600D01*
X6381189Y32867324D01*
X6361575Y32691501D01*
X6361398Y32690396D01*
X6318820Y32487417D01*
X6318431Y32486008D01*
X6239344Y32256464D01*
X6235779Y32251292D01*
X6230053Y32248710D01*
X6223816Y32249461D01*
X5453785Y32567438D01*
X5449978Y32569979D01*
X5447438Y32573784D01*
X5129460Y33343817D01*
X5128709Y33350054D01*
X5131291Y33355780D01*
X5136461Y33359344D01*
X5366022Y33438438D01*
X5367399Y33438818D01*
X5570412Y33481405D01*
X5571480Y33481576D01*
X5747332Y33501194D01*
X5747581Y33501218D01*
X5906192Y33515115D01*
X6057196Y33540623D01*
X6210449Y33595101D01*
X6375949Y33695925D01*
X6555455Y33853251D01*
X6563551Y33856145D01*
X6571439Y33852724D01*
G37*
%TD.AperFunction*%
%TD*%
%TA.AperFunction,Conductor*%
%TO.N,VCC*%
G36*
X3246280Y56210309D02*
G01*
X3444947Y56120190D01*
X3457461Y56114513D01*
X3458126Y56114186D01*
X3631519Y56021877D01*
X3631855Y56021690D01*
X3773999Y55939162D01*
X3844131Y55900145D01*
X3901831Y55868043D01*
X3949403Y55846875D01*
X4032267Y55810001D01*
X4170581Y55770014D01*
X4182388Y55766600D01*
X4369266Y55739412D01*
X4404736Y55738026D01*
X4598758Y55730440D01*
X4606733Y55726859D01*
X4610000Y55718749D01*
X4610000Y55141251D01*
X4606733Y55133141D01*
X4598758Y55129561D01*
X4528633Y55126820D01*
X4369266Y55120590D01*
X4182386Y55093401D01*
X4032264Y55050000D01*
X3901831Y54991959D01*
X3774010Y54920847D01*
X3631876Y54838325D01*
X3631499Y54838115D01*
X3458126Y54745817D01*
X3457461Y54745490D01*
X3246283Y54649693D01*
X3240184Y54648717D01*
X3234437Y54650983D01*
X3230645Y54655859D01*
X3193340Y54745645D01*
X2910864Y55425512D01*
X2909970Y55430000D01*
X2910865Y55434489D01*
X3033646Y55730000D01*
X3230646Y56204145D01*
X3234437Y56209018D01*
X3240184Y56211284D01*
X3246280Y56210309D01*
G37*
%TD.AperFunction*%
%TD*%
%TA.AperFunction,Conductor*%
%TO.N,/~{CS}*%
G36*
X15927301Y20603683D02*
G01*
X16131677Y20504350D01*
X16132917Y20503650D01*
X16296257Y20397839D01*
X16297144Y20397204D01*
X16427366Y20294439D01*
X16427558Y20294283D01*
X16542632Y20199288D01*
X16660367Y20117051D01*
X16798767Y20052418D01*
X16975941Y20010148D01*
X17147407Y19999051D01*
X17199056Y19995708D01*
X17206836Y19992034D01*
X17210000Y19984032D01*
X17210000Y19755968D01*
X17206836Y19747966D01*
X17199056Y19744292D01*
X16975940Y19729853D01*
X16920425Y19716609D01*
X16798767Y19687583D01*
X16798764Y19687582D01*
X16798765Y19687582D01*
X16660367Y19622952D01*
X16542627Y19540710D01*
X16427566Y19445725D01*
X16427366Y19445563D01*
X16297144Y19342798D01*
X16296257Y19342163D01*
X16132920Y19236354D01*
X16131674Y19235651D01*
X15927305Y19136320D01*
X15921130Y19135191D01*
X15915261Y19137415D01*
X15911386Y19142353D01*
X15785354Y19445630D01*
X15610864Y19865514D01*
X15609969Y19870001D01*
X15610863Y19874485D01*
X15911387Y20597651D01*
X15915261Y20602586D01*
X15921130Y20604811D01*
X15927301Y20603683D01*
G37*
%TD.AperFunction*%
%TD*%
%TA.AperFunction,Conductor*%
%TO.N,/A1*%
G36*
X9242863Y24054167D02*
G01*
X9596717Y23906639D01*
X9601599Y23902827D01*
X9603851Y23897058D01*
X9602843Y23890947D01*
X9559604Y23797036D01*
X9559202Y23796244D01*
X9514029Y23714992D01*
X9513737Y23714496D01*
X9472413Y23648076D01*
X9472407Y23648066D01*
X9436048Y23588383D01*
X9425736Y23567553D01*
X9405891Y23527464D01*
X9383017Y23457088D01*
X9368502Y23369026D01*
X9363923Y23266233D01*
X9360322Y23258299D01*
X9352235Y23255054D01*
X9124614Y23255054D01*
X9116527Y23258299D01*
X9112926Y23266233D01*
X9108342Y23369029D01*
X9108342Y23369032D01*
X9093814Y23457095D01*
X9070921Y23527470D01*
X9040744Y23588383D01*
X9040743Y23588386D01*
X9004394Y23648017D01*
X9004392Y23648019D01*
X9004379Y23648041D01*
X8963013Y23714493D01*
X8962721Y23714989D01*
X8962719Y23714992D01*
X8917532Y23796244D01*
X8917132Y23797033D01*
X8873889Y23890947D01*
X8872881Y23897058D01*
X8875133Y23902827D01*
X8880015Y23906639D01*
X9233868Y24054167D01*
X9238366Y24055067D01*
X9242863Y24054167D01*
G37*
%TD.AperFunction*%
%TD*%
%TA.AperFunction,Conductor*%
%TO.N,GND*%
G36*
X20936897Y24006755D02*
G01*
X20940498Y23998821D01*
X20950159Y23782049D01*
X20979202Y23605922D01*
X20979203Y23605919D01*
X21024970Y23465165D01*
X21055722Y23403065D01*
X21085302Y23343329D01*
X21158010Y23224014D01*
X21240872Y23090862D01*
X21241164Y23090366D01*
X21331884Y22927214D01*
X21332286Y22926421D01*
X21424023Y22727182D01*
X21425031Y22721067D01*
X21422774Y22715294D01*
X21417885Y22711485D01*
X20694490Y22410866D01*
X20690000Y22409970D01*
X20685510Y22410866D01*
X19962114Y22711485D01*
X19957225Y22715294D01*
X19954968Y22721067D01*
X19955975Y22727180D01*
X20047718Y22926435D01*
X20048107Y22927202D01*
X20138841Y23090380D01*
X20139126Y23090862D01*
X20221988Y23224014D01*
X20294695Y23343329D01*
X20294697Y23343332D01*
X20355029Y23465165D01*
X20400796Y23605919D01*
X20429839Y23782046D01*
X20439501Y23998821D01*
X20443103Y24006755D01*
X20451190Y24010000D01*
X20928810Y24010000D01*
X20936897Y24006755D01*
G37*
%TD.AperFunction*%
%TD*%
%TA.AperFunction,Conductor*%
%TO.N,Net-(U1-O5)*%
G36*
X11269592Y12549587D02*
G01*
X11273159Y12544422D01*
X11347430Y12329683D01*
X11347815Y12328305D01*
X11388495Y12137979D01*
X11388673Y12136902D01*
X11408086Y11972164D01*
X11408113Y11971908D01*
X11422311Y11823373D01*
X11447411Y11681971D01*
X11483905Y11581527D01*
X11499573Y11538404D01*
X11594964Y11383233D01*
X11604931Y11371887D01*
X11742519Y11215258D01*
X11745423Y11207158D01*
X11742002Y11199263D01*
X11580737Y11037998D01*
X11572842Y11034577D01*
X11564742Y11037481D01*
X11478606Y11113146D01*
X11396767Y11185036D01*
X11373624Y11199263D01*
X11241598Y11280426D01*
X11241597Y11280427D01*
X11241596Y11280427D01*
X11198473Y11296095D01*
X11098029Y11332589D01*
X10981727Y11353234D01*
X10956628Y11357689D01*
X10935382Y11359720D01*
X10808092Y11371887D01*
X10807836Y11371914D01*
X10643098Y11391327D01*
X10642021Y11391505D01*
X10451695Y11432185D01*
X10450317Y11432570D01*
X10235578Y11506841D01*
X10230413Y11510408D01*
X10227836Y11516131D01*
X10228587Y11522363D01*
X10294483Y11681971D01*
X10527438Y12246216D01*
X10529979Y12250021D01*
X10533784Y12252562D01*
X11257637Y12551414D01*
X11263869Y12552164D01*
X11269592Y12549587D01*
G37*
%TD.AperFunction*%
%TD*%
%TA.AperFunction,Conductor*%
%TO.N,/ATN*%
G36*
X20335661Y45722486D02*
G01*
X20339221Y45717298D01*
X20431847Y45446107D01*
X20432246Y45444629D01*
X20480167Y45206038D01*
X20480341Y45204869D01*
X20500509Y44997910D01*
X20500536Y44997590D01*
X20506464Y44912678D01*
X20513586Y44810671D01*
X20540229Y44632676D01*
X20601220Y44452190D01*
X20613998Y44430779D01*
X20717326Y44257640D01*
X20902126Y44045705D01*
X20905001Y44037617D01*
X20901581Y44029743D01*
X20740257Y43868419D01*
X20732383Y43864999D01*
X20724295Y43867874D01*
X20512360Y44052674D01*
X20317808Y44168781D01*
X20229443Y44198642D01*
X20137324Y44229771D01*
X19959329Y44256414D01*
X19857322Y44263536D01*
X19772410Y44269464D01*
X19772090Y44269491D01*
X19565131Y44289659D01*
X19563962Y44289833D01*
X19325371Y44337754D01*
X19323893Y44338153D01*
X19052702Y44430779D01*
X19047514Y44434339D01*
X19044920Y44440071D01*
X19045670Y44446318D01*
X19048097Y44452192D01*
X19417438Y45346219D01*
X19419978Y45350022D01*
X19423781Y45352562D01*
X20323682Y45724331D01*
X20329929Y45725080D01*
X20335661Y45722486D01*
G37*
%TD.AperFunction*%
%TD*%
%TA.AperFunction,Conductor*%
%TO.N,/ATN*%
G36*
X14268809Y33931850D02*
G01*
X14432423Y33768236D01*
X14435743Y33761538D01*
X14434331Y33754197D01*
X14401455Y33696148D01*
X14361378Y33625386D01*
X14361372Y33625375D01*
X14361369Y33625369D01*
X14284046Y33474201D01*
X14206689Y33308311D01*
X14129365Y33127845D01*
X14052019Y32932680D01*
X13974682Y32722890D01*
X13897331Y32498413D01*
X13823895Y32271385D01*
X13820373Y32266099D01*
X13814607Y32263432D01*
X13808298Y32264172D01*
X13073786Y32567438D01*
X13069978Y32569979D01*
X13067438Y32573785D01*
X12765109Y33306026D01*
X12764497Y33313004D01*
X12767983Y33319082D01*
X12774313Y33322079D01*
X12947165Y33346071D01*
X13134990Y33386789D01*
X13322815Y33442156D01*
X13510640Y33512172D01*
X13698465Y33596836D01*
X13886290Y33696148D01*
X14074115Y33810109D01*
X14253928Y33933232D01*
X14261617Y33935227D01*
X14268809Y33931850D01*
G37*
%TD.AperFunction*%
%TD*%
%TA.AperFunction,Conductor*%
%TO.N,/A2*%
G36*
X20683346Y20667398D02*
G01*
X20688203Y20663086D01*
X20690011Y20656847D01*
X20690696Y19881014D01*
X20689130Y19875157D01*
X20684843Y19870870D01*
X20678986Y19869304D01*
X19903153Y19869989D01*
X19896914Y19871797D01*
X19892602Y19876654D01*
X19891544Y19883062D01*
X19901085Y19963756D01*
X19901657Y19966231D01*
X19928906Y20044168D01*
X19929581Y20045723D01*
X19965135Y20113442D01*
X19965322Y20113780D01*
X20000722Y20174698D01*
X20027041Y20231981D01*
X20035554Y20289219D01*
X20017630Y20350169D01*
X20017629Y20350170D01*
X20017629Y20350171D01*
X19970950Y20410437D01*
X19968523Y20418340D01*
X19971926Y20425873D01*
X20134127Y20588074D01*
X20141660Y20591477D01*
X20149563Y20589050D01*
X20209829Y20542371D01*
X20209830Y20542371D01*
X20209831Y20542370D01*
X20270781Y20524446D01*
X20328019Y20532959D01*
X20385302Y20559278D01*
X20446220Y20594678D01*
X20446558Y20594865D01*
X20514277Y20630419D01*
X20515832Y20631094D01*
X20593769Y20658343D01*
X20596244Y20658915D01*
X20676938Y20668456D01*
X20683346Y20667398D01*
G37*
%TD.AperFunction*%
%TD*%
%TA.AperFunction,Conductor*%
%TO.N,/CLK*%
G36*
X28303374Y33347438D02*
G01*
X28308211Y33343126D01*
X28310011Y33336900D01*
X28310696Y32561014D01*
X28309130Y32555157D01*
X28304843Y32550870D01*
X28298986Y32549304D01*
X27523100Y32549989D01*
X27516874Y32551789D01*
X27512562Y32556626D01*
X27511486Y32563016D01*
X27520850Y32645030D01*
X27521385Y32647435D01*
X27548019Y32726579D01*
X27548644Y32728076D01*
X27583255Y32796875D01*
X27583428Y32797201D01*
X27617629Y32859092D01*
X27642633Y32917304D01*
X27649817Y32975444D01*
X27630653Y33037288D01*
X27582967Y33098459D01*
X27580518Y33106372D01*
X27583922Y33113923D01*
X27746077Y33276078D01*
X27753628Y33279482D01*
X27761541Y33277033D01*
X27822712Y33229347D01*
X27884556Y33210183D01*
X27942696Y33217367D01*
X28000908Y33242371D01*
X28062799Y33276572D01*
X28063125Y33276745D01*
X28131924Y33311356D01*
X28133421Y33311981D01*
X28212568Y33338616D01*
X28214967Y33339150D01*
X28296984Y33348514D01*
X28303374Y33347438D01*
G37*
%TD.AperFunction*%
%TD*%
%TA.AperFunction,Conductor*%
%TO.N,VCC*%
G36*
X26087127Y12984165D02*
G01*
X26284640Y12895309D01*
X26285203Y12895037D01*
X26448386Y12810267D01*
X26448641Y12810130D01*
X26582764Y12735280D01*
X26703572Y12671514D01*
X26826816Y12620002D01*
X26968381Y12581846D01*
X27144148Y12558145D01*
X27358722Y12550407D01*
X27366721Y12546838D01*
X27370000Y12538715D01*
X27370000Y11961285D01*
X27366721Y11953162D01*
X27358722Y11949594D01*
X27301223Y11947520D01*
X27144151Y11941857D01*
X26968382Y11918156D01*
X26826814Y11879999D01*
X26703573Y11828488D01*
X26627569Y11788371D01*
X26582764Y11764721D01*
X26510694Y11724502D01*
X26448668Y11689887D01*
X26448360Y11689721D01*
X26285218Y11604973D01*
X26284624Y11604686D01*
X26087129Y11515837D01*
X26081039Y11514878D01*
X26075307Y11517148D01*
X26071525Y11522017D01*
X25770864Y12245515D01*
X25769969Y12250000D01*
X25770864Y12254486D01*
X26071526Y12977987D01*
X26075307Y12982853D01*
X26081039Y12985123D01*
X26087127Y12984165D01*
G37*
%TD.AperFunction*%
%TD*%
%TA.AperFunction,Conductor*%
%TO.N,/~{CS}*%
G36*
X17484592Y28841598D02*
G01*
X17533248Y28801321D01*
X17584481Y28776955D01*
X17632738Y28768880D01*
X17680667Y28770688D01*
X17730568Y28775932D01*
X17731283Y28775984D01*
X17785236Y28778274D01*
X17787022Y28778214D01*
X17840303Y28772276D01*
X17847858Y28771434D01*
X17850040Y28770977D01*
X17869235Y28765002D01*
X17909866Y28752353D01*
X17915215Y28748860D01*
X17917932Y28743078D01*
X17917207Y28736730D01*
X17771563Y28382805D01*
X17769016Y28378984D01*
X17765195Y28376437D01*
X17411270Y28230793D01*
X17404922Y28230068D01*
X17399140Y28232785D01*
X17395647Y28238135D01*
X17377023Y28297960D01*
X17376566Y28300142D01*
X17369787Y28360975D01*
X17369726Y28362767D01*
X17370307Y28376437D01*
X17372016Y28416717D01*
X17372069Y28417438D01*
X17377312Y28467333D01*
X17379120Y28515262D01*
X17371045Y28563519D01*
X17346679Y28614752D01*
X17306402Y28663408D01*
X17303729Y28671417D01*
X17307142Y28679140D01*
X17468860Y28840858D01*
X17476583Y28844271D01*
X17484592Y28841598D01*
G37*
%TD.AperFunction*%
%TD*%
%TA.AperFunction,Conductor*%
%TO.N,GND*%
G36*
X13367973Y38338026D02*
G01*
X13551844Y38256091D01*
X13552338Y38255857D01*
X13659715Y38201645D01*
X13705245Y38178658D01*
X13705473Y38178540D01*
X13831547Y38111379D01*
X13907387Y38073772D01*
X13945311Y38054966D01*
X14061336Y38009994D01*
X14061341Y38009993D01*
X14061343Y38009992D01*
X14194344Y37977085D01*
X14293137Y37964961D01*
X14358997Y37956877D01*
X14443868Y37954111D01*
X14558681Y37950369D01*
X14566707Y37946812D01*
X14570000Y37938675D01*
X14570000Y37361325D01*
X14566707Y37353188D01*
X14558681Y37349632D01*
X14535217Y37348867D01*
X14358997Y37343125D01*
X14194347Y37322917D01*
X14061336Y37290008D01*
X13945311Y37245036D01*
X13831541Y37188619D01*
X13705473Y37121463D01*
X13705245Y37121345D01*
X13552347Y37044150D01*
X13551836Y37043907D01*
X13367973Y36961975D01*
X13361894Y36961036D01*
X13356178Y36963311D01*
X13352407Y36968171D01*
X13218633Y37290008D01*
X13070865Y37645513D01*
X13069970Y37650000D01*
X13070865Y37654488D01*
X13352408Y38331832D01*
X13356178Y38336690D01*
X13361894Y38338965D01*
X13367973Y38338026D01*
G37*
%TD.AperFunction*%
%TD*%
%TA.AperFunction,Conductor*%
%TO.N,GND*%
G36*
X27928171Y18207533D02*
G01*
X27931985Y18202638D01*
X28309136Y17294487D01*
X28310031Y17290000D01*
X28309136Y17285513D01*
X27931985Y16377363D01*
X27928171Y16372468D01*
X27922390Y16370213D01*
X27916268Y16371231D01*
X27663893Y16487961D01*
X27663062Y16488386D01*
X27458942Y16603381D01*
X27458411Y16603699D01*
X27292224Y16709280D01*
X27292191Y16709301D01*
X27221086Y16753812D01*
X27143399Y16802443D01*
X26991481Y16880057D01*
X26903616Y16909611D01*
X26815751Y16939164D01*
X26595500Y16976797D01*
X26321159Y16989484D01*
X26313238Y16993092D01*
X26310000Y17001172D01*
X26310000Y17578828D01*
X26313238Y17586908D01*
X26321159Y17590516D01*
X26346587Y17591693D01*
X26595498Y17603204D01*
X26815753Y17640839D01*
X26991481Y17699944D01*
X27143399Y17777559D01*
X27292224Y17870721D01*
X27458440Y17976322D01*
X27458913Y17976605D01*
X27663073Y18091622D01*
X27663882Y18092036D01*
X27916269Y18208771D01*
X27922390Y18209788D01*
X27928171Y18207533D01*
G37*
%TD.AperFunction*%
%TD*%
%TA.AperFunction,Conductor*%
%TO.N,VCC*%
G36*
X25464692Y2822853D02*
G01*
X25468474Y2817984D01*
X25769134Y2094490D01*
X25770030Y2090000D01*
X25769134Y2085510D01*
X25468474Y1362017D01*
X25464692Y1357148D01*
X25458960Y1354878D01*
X25452870Y1355837D01*
X25255374Y1444686D01*
X25254780Y1444973D01*
X25091638Y1529721D01*
X25091330Y1529887D01*
X24957234Y1604721D01*
X24836427Y1668487D01*
X24836425Y1668488D01*
X24713183Y1719999D01*
X24571615Y1758156D01*
X24395847Y1781857D01*
X24240292Y1787466D01*
X24181277Y1789594D01*
X24173279Y1793162D01*
X24170000Y1801285D01*
X24170000Y2378715D01*
X24173279Y2386838D01*
X24181277Y2390407D01*
X24395851Y2398145D01*
X24571617Y2421846D01*
X24713182Y2460002D01*
X24836427Y2511514D01*
X24957234Y2575280D01*
X25091385Y2650145D01*
X25091584Y2650253D01*
X25254808Y2735043D01*
X25255344Y2735302D01*
X25452873Y2824165D01*
X25458960Y2825123D01*
X25464692Y2822853D01*
G37*
%TD.AperFunction*%
%TD*%
%TA.AperFunction,Conductor*%
%TO.N,GND*%
G36*
X8729748Y20169872D02*
G01*
X8733376Y20164888D01*
X8810207Y19962396D01*
X8810423Y19961773D01*
X8865843Y19786525D01*
X8865944Y19786190D01*
X8907858Y19638420D01*
X8948186Y19507928D01*
X8998913Y19384347D01*
X9072031Y19257271D01*
X9179558Y19116224D01*
X9325814Y18959025D01*
X9328946Y18950844D01*
X9325521Y18942782D01*
X8917218Y18534479D01*
X8909156Y18531054D01*
X8900975Y18534186D01*
X8743776Y18680442D01*
X8602729Y18787969D01*
X8475653Y18861087D01*
X8352072Y18911814D01*
X8221580Y18952142D01*
X8073810Y18994056D01*
X8073475Y18994157D01*
X7928544Y19039990D01*
X7898221Y19049579D01*
X7897610Y19049791D01*
X7695111Y19126625D01*
X7690128Y19130252D01*
X7687680Y19135911D01*
X7688447Y19142025D01*
X7987438Y19866216D01*
X7989979Y19870021D01*
X7993784Y19872562D01*
X8717975Y20171553D01*
X8724089Y20172320D01*
X8729748Y20169872D01*
G37*
%TD.AperFunction*%
%TD*%
%TA.AperFunction,Conductor*%
%TO.N,VCC*%
G36*
X27928180Y3047481D02*
G01*
X27932013Y3042572D01*
X28309136Y2134487D01*
X28310031Y2130000D01*
X28309136Y2125513D01*
X27931961Y1217305D01*
X27928163Y1212422D01*
X27922406Y1210159D01*
X27916299Y1211148D01*
X27666581Y1325093D01*
X27665866Y1325449D01*
X27462810Y1435431D01*
X27462386Y1435672D01*
X27296246Y1534833D01*
X27147071Y1620902D01*
X26994820Y1691629D01*
X26994817Y1691630D01*
X26819332Y1744835D01*
X26819330Y1744836D01*
X26819328Y1744836D01*
X26600438Y1778348D01*
X26564609Y1779826D01*
X26329173Y1789538D01*
X26321214Y1793126D01*
X26317956Y1801227D01*
X26317956Y2378892D01*
X26321171Y2386948D01*
X26329049Y2390576D01*
X26604039Y2404864D01*
X26604039Y2404865D01*
X26823551Y2446888D01*
X26997648Y2512225D01*
X27147483Y2597025D01*
X27294212Y2697439D01*
X27294215Y2697434D01*
X27294230Y2697452D01*
X27458701Y2809423D01*
X27459307Y2809806D01*
X27662516Y2929447D01*
X27663449Y2929940D01*
X27916236Y3048676D01*
X27922372Y3049727D01*
X27928180Y3047481D01*
G37*
%TD.AperFunction*%
%TD*%
%TA.AperFunction,Conductor*%
%TO.N,VCC*%
G36*
X21007127Y2824165D02*
G01*
X21204640Y2735309D01*
X21205203Y2735037D01*
X21368386Y2650267D01*
X21368641Y2650130D01*
X21502764Y2575280D01*
X21623572Y2511514D01*
X21746816Y2460002D01*
X21888381Y2421846D01*
X22064148Y2398145D01*
X22278722Y2390407D01*
X22286721Y2386838D01*
X22290000Y2378715D01*
X22290000Y1801285D01*
X22286721Y1793162D01*
X22278722Y1789594D01*
X22221223Y1787520D01*
X22064151Y1781857D01*
X21888382Y1758156D01*
X21746814Y1719999D01*
X21623573Y1668488D01*
X21547569Y1628371D01*
X21502764Y1604721D01*
X21430694Y1564502D01*
X21368668Y1529887D01*
X21368360Y1529721D01*
X21205218Y1444973D01*
X21204624Y1444686D01*
X21007129Y1355837D01*
X21001039Y1354878D01*
X20995307Y1357148D01*
X20991525Y1362017D01*
X20690864Y2085515D01*
X20689969Y2090000D01*
X20690864Y2094486D01*
X20991526Y2817987D01*
X20995307Y2822853D01*
X21001039Y2825123D01*
X21007127Y2824165D01*
G37*
%TD.AperFunction*%
%TD*%
%TA.AperFunction,Conductor*%
%TO.N,GND*%
G36*
X27928171Y8047533D02*
G01*
X27931985Y8042638D01*
X28309136Y7134488D01*
X28310031Y7130001D01*
X28309136Y7125514D01*
X27931985Y6217363D01*
X27928171Y6212468D01*
X27922390Y6210213D01*
X27916268Y6211231D01*
X27663893Y6327961D01*
X27663062Y6328386D01*
X27458942Y6443381D01*
X27458411Y6443699D01*
X27292224Y6549280D01*
X27292191Y6549301D01*
X27221086Y6593812D01*
X27143399Y6642443D01*
X26991481Y6720057D01*
X26903616Y6749611D01*
X26815751Y6779164D01*
X26595500Y6816797D01*
X26321159Y6829484D01*
X26313238Y6833092D01*
X26310000Y6841172D01*
X26310000Y7418828D01*
X26313238Y7426908D01*
X26321159Y7430516D01*
X26346587Y7431693D01*
X26595498Y7443204D01*
X26815753Y7480839D01*
X26991481Y7539944D01*
X27143399Y7617559D01*
X27292224Y7710721D01*
X27458440Y7816322D01*
X27458913Y7816605D01*
X27663073Y7931622D01*
X27663882Y7932036D01*
X27916269Y8048771D01*
X27922390Y8049788D01*
X27928171Y8047533D01*
G37*
%TD.AperFunction*%
%TD*%
%TA.AperFunction,Conductor*%
%TO.N,/A2*%
G36*
X12222038Y21508425D02*
G01*
X12315951Y21465185D01*
X12316744Y21464782D01*
X12398001Y21419599D01*
X12398497Y21419308D01*
X12464975Y21377938D01*
X12524607Y21341600D01*
X12524610Y21341599D01*
X12524611Y21341598D01*
X12585527Y21311432D01*
X12655904Y21288549D01*
X12743968Y21274027D01*
X12765023Y21273089D01*
X12846767Y21269444D01*
X12854701Y21265843D01*
X12857946Y21257756D01*
X12857946Y21030136D01*
X12854701Y21022049D01*
X12846767Y21018448D01*
X12743969Y21013867D01*
X12655907Y20999346D01*
X12655903Y20999345D01*
X12655904Y20999345D01*
X12585527Y20976461D01*
X12585524Y20976460D01*
X12585525Y20976460D01*
X12524607Y20946294D01*
X12464974Y20909956D01*
X12464975Y20909955D01*
X12398497Y20868587D01*
X12398001Y20868296D01*
X12316744Y20823113D01*
X12315951Y20822710D01*
X12222041Y20779470D01*
X12215930Y20778462D01*
X12210161Y20780714D01*
X12206349Y20785596D01*
X12154501Y20909956D01*
X12058821Y21139449D01*
X12057921Y21143946D01*
X12058821Y21148444D01*
X12206350Y21502300D01*
X12210161Y21507180D01*
X12215930Y21509432D01*
X12222038Y21508425D01*
G37*
%TD.AperFunction*%
%TD*%
%TA.AperFunction,Conductor*%
%TO.N,VCC*%
G36*
X26087127Y2824165D02*
G01*
X26284640Y2735309D01*
X26285203Y2735037D01*
X26448386Y2650267D01*
X26448641Y2650130D01*
X26582764Y2575280D01*
X26703572Y2511514D01*
X26826816Y2460002D01*
X26968381Y2421846D01*
X27144148Y2398145D01*
X27358722Y2390407D01*
X27366721Y2386838D01*
X27370000Y2378715D01*
X27370000Y1801285D01*
X27366721Y1793162D01*
X27358722Y1789594D01*
X27301223Y1787520D01*
X27144151Y1781857D01*
X26968382Y1758156D01*
X26826814Y1719999D01*
X26703573Y1668488D01*
X26627569Y1628371D01*
X26582764Y1604721D01*
X26510694Y1564502D01*
X26448668Y1529887D01*
X26448360Y1529721D01*
X26285218Y1444973D01*
X26284624Y1444686D01*
X26087129Y1355837D01*
X26081039Y1354878D01*
X26075307Y1357148D01*
X26071525Y1362017D01*
X25770864Y2085515D01*
X25769969Y2090000D01*
X25770864Y2094486D01*
X26071526Y2817987D01*
X26075307Y2822853D01*
X26081039Y2825123D01*
X26087127Y2824165D01*
G37*
%TD.AperFunction*%
%TD*%
%TA.AperFunction,Conductor*%
%TO.N,VCC*%
G36*
X5125562Y56209018D02*
G01*
X5129354Y56204142D01*
X5449134Y55434489D01*
X5450029Y55430000D01*
X5449134Y55425511D01*
X5129354Y54655859D01*
X5125562Y54650983D01*
X5119815Y54648717D01*
X5113716Y54649693D01*
X5110872Y54650983D01*
X5056892Y54675470D01*
X4902536Y54745490D01*
X4901871Y54745817D01*
X4728499Y54838115D01*
X4728122Y54838325D01*
X4585987Y54920847D01*
X4458166Y54991959D01*
X4327733Y55050000D01*
X4327731Y55050001D01*
X4252672Y55071701D01*
X4177612Y55093401D01*
X3990732Y55120590D01*
X3832986Y55126756D01*
X3761241Y55129561D01*
X3753267Y55133141D01*
X3750000Y55141251D01*
X3750000Y55718749D01*
X3753267Y55726859D01*
X3761241Y55730440D01*
X3971435Y55738658D01*
X3990732Y55739412D01*
X4177610Y55766600D01*
X4177612Y55766601D01*
X4177614Y55766601D01*
X4327731Y55810001D01*
X4458166Y55868043D01*
X4585999Y55939162D01*
X4728166Y56021703D01*
X4728456Y56021865D01*
X4901881Y56114192D01*
X4902525Y56114508D01*
X5113719Y56210309D01*
X5119815Y56211284D01*
X5125562Y56209018D01*
G37*
%TD.AperFunction*%
%TD*%
%TA.AperFunction,Conductor*%
%TO.N,VCC*%
G36*
X22924692Y2822853D02*
G01*
X22928474Y2817984D01*
X23229134Y2094490D01*
X23230030Y2090000D01*
X23229134Y2085510D01*
X22928474Y1362017D01*
X22924692Y1357148D01*
X22918960Y1354878D01*
X22912870Y1355837D01*
X22715374Y1444686D01*
X22714780Y1444973D01*
X22551638Y1529721D01*
X22551330Y1529887D01*
X22417234Y1604721D01*
X22296427Y1668487D01*
X22296425Y1668488D01*
X22173183Y1719999D01*
X22031615Y1758156D01*
X21855847Y1781857D01*
X21700292Y1787466D01*
X21641277Y1789594D01*
X21633279Y1793162D01*
X21630000Y1801285D01*
X21630000Y2378715D01*
X21633279Y2386838D01*
X21641277Y2390407D01*
X21855851Y2398145D01*
X22031617Y2421846D01*
X22173182Y2460002D01*
X22296427Y2511514D01*
X22417234Y2575280D01*
X22551385Y2650145D01*
X22551584Y2650253D01*
X22714808Y2735043D01*
X22715344Y2735302D01*
X22912873Y2824165D01*
X22918960Y2825123D01*
X22924692Y2822853D01*
G37*
%TD.AperFunction*%
%TD*%
%TA.AperFunction,Conductor*%
%TO.N,/ATN*%
G36*
X28303374Y35887438D02*
G01*
X28308211Y35883126D01*
X28310011Y35876900D01*
X28310696Y35101014D01*
X28309130Y35095157D01*
X28304843Y35090870D01*
X28298986Y35089304D01*
X27523100Y35089989D01*
X27516874Y35091789D01*
X27512562Y35096626D01*
X27511486Y35103016D01*
X27520850Y35185030D01*
X27521385Y35187435D01*
X27548019Y35266579D01*
X27548644Y35268076D01*
X27583255Y35336875D01*
X27583428Y35337201D01*
X27617629Y35399092D01*
X27642633Y35457304D01*
X27649817Y35515444D01*
X27630653Y35577288D01*
X27582967Y35638459D01*
X27580518Y35646372D01*
X27583922Y35653923D01*
X27746077Y35816078D01*
X27753628Y35819482D01*
X27761541Y35817033D01*
X27822712Y35769347D01*
X27884556Y35750183D01*
X27942696Y35757367D01*
X28000908Y35782371D01*
X28062799Y35816572D01*
X28063125Y35816745D01*
X28131924Y35851356D01*
X28133421Y35851981D01*
X28212568Y35878616D01*
X28214967Y35879150D01*
X28296984Y35888514D01*
X28303374Y35887438D01*
G37*
%TD.AperFunction*%
%TD*%
%TA.AperFunction,Conductor*%
%TO.N,Net-(U1-O3)*%
G36*
X16397264Y12250012D02*
G01*
X16403395Y12248270D01*
X16407704Y12243570D01*
X16408909Y12237310D01*
X16400923Y12144415D01*
X16400624Y12142608D01*
X16378713Y12054012D01*
X16378380Y12052904D01*
X16351007Y11975857D01*
X16350982Y11975788D01*
X16325857Y11906444D01*
X16310993Y11841353D01*
X16314183Y11776439D01*
X16343214Y11707644D01*
X16343216Y11707642D01*
X16399196Y11639082D01*
X16401818Y11631094D01*
X16398406Y11623410D01*
X16236588Y11461593D01*
X16228904Y11458181D01*
X16220916Y11460803D01*
X16152357Y11516783D01*
X16152355Y11516784D01*
X16152354Y11516785D01*
X16083561Y11545817D01*
X16018646Y11549007D01*
X15953556Y11534143D01*
X15884211Y11509018D01*
X15807096Y11481620D01*
X15805988Y11481287D01*
X15717392Y11459376D01*
X15715585Y11459077D01*
X15622690Y11451091D01*
X15616430Y11452296D01*
X15611730Y11456605D01*
X15609988Y11462736D01*
X15609303Y12238989D01*
X15610869Y12244844D01*
X15615156Y12249131D01*
X15621011Y12250697D01*
X16397264Y12250012D01*
G37*
%TD.AperFunction*%
%TD*%
%TA.AperFunction,Conductor*%
%TO.N,/CLKOUT*%
G36*
X17647784Y15313234D02*
G01*
X17651596Y15308352D01*
X17799123Y14954502D01*
X17800024Y14950000D01*
X17799123Y14945498D01*
X17651596Y14591649D01*
X17647784Y14586767D01*
X17642015Y14584515D01*
X17635905Y14585523D01*
X17588373Y14607409D01*
X17541993Y14628764D01*
X17541200Y14629167D01*
X17459943Y14674350D01*
X17459447Y14674641D01*
X17392969Y14716009D01*
X17392969Y14716010D01*
X17333337Y14752348D01*
X17303468Y14767139D01*
X17272417Y14782515D01*
X17202040Y14805399D01*
X17202037Y14805400D01*
X17113974Y14819921D01*
X17011179Y14824502D01*
X17003245Y14828103D01*
X17000000Y14836190D01*
X17000000Y15063810D01*
X17003245Y15071897D01*
X17011179Y15075498D01*
X17085585Y15078816D01*
X17113977Y15080081D01*
X17202040Y15094603D01*
X17272417Y15117486D01*
X17333334Y15147652D01*
X17352636Y15159415D01*
X17392969Y15183992D01*
X17393016Y15184021D01*
X17459460Y15225370D01*
X17459943Y15225653D01*
X17541200Y15270836D01*
X17541980Y15271233D01*
X17635908Y15314479D01*
X17642015Y15315486D01*
X17647784Y15313234D01*
G37*
%TD.AperFunction*%
%TD*%
%TA.AperFunction,Conductor*%
%TO.N,GND*%
G36*
X27928171Y25827533D02*
G01*
X27931985Y25822638D01*
X28309136Y24914488D01*
X28310031Y24910001D01*
X28309136Y24905514D01*
X27931985Y23997363D01*
X27928171Y23992468D01*
X27922390Y23990213D01*
X27916268Y23991231D01*
X27663893Y24107961D01*
X27663062Y24108386D01*
X27458942Y24223381D01*
X27458411Y24223699D01*
X27292224Y24329280D01*
X27292191Y24329301D01*
X27221086Y24373812D01*
X27143399Y24422443D01*
X26991481Y24500057D01*
X26903616Y24529611D01*
X26815751Y24559164D01*
X26595500Y24596797D01*
X26321159Y24609484D01*
X26313238Y24613092D01*
X26310000Y24621172D01*
X26310000Y25198828D01*
X26313238Y25206908D01*
X26321159Y25210516D01*
X26346587Y25211693D01*
X26595498Y25223204D01*
X26815753Y25260839D01*
X26991481Y25319944D01*
X27143399Y25397559D01*
X27292224Y25490721D01*
X27458440Y25596322D01*
X27458913Y25596605D01*
X27663073Y25711622D01*
X27663882Y25712036D01*
X27916269Y25828771D01*
X27922390Y25829788D01*
X27928171Y25827533D01*
G37*
%TD.AperFunction*%
%TD*%
%TA.AperFunction,Conductor*%
%TO.N,GND*%
G36*
X17863821Y38336690D02*
G01*
X17867592Y38331830D01*
X18149133Y37654492D01*
X18150029Y37650001D01*
X18149133Y37645510D01*
X17867592Y36968171D01*
X17863821Y36963311D01*
X17858105Y36961036D01*
X17852026Y36961975D01*
X17668162Y37043907D01*
X17667651Y37044150D01*
X17514752Y37121345D01*
X17514524Y37121463D01*
X17433831Y37164448D01*
X17388452Y37188622D01*
X17349922Y37207728D01*
X17274687Y37245036D01*
X17158661Y37290008D01*
X17025650Y37322917D01*
X16861000Y37343125D01*
X16684908Y37348863D01*
X16661318Y37349632D01*
X16653293Y37353188D01*
X16650000Y37361325D01*
X16650000Y37938675D01*
X16653293Y37946812D01*
X16661318Y37950369D01*
X16805505Y37955069D01*
X16861000Y37956877D01*
X16893929Y37960919D01*
X17025654Y37977085D01*
X17158655Y38009992D01*
X17158658Y38009994D01*
X17158661Y38009994D01*
X17274687Y38054966D01*
X17275908Y38055572D01*
X17388452Y38111379D01*
X17514550Y38178554D01*
X17514720Y38178642D01*
X17667676Y38255865D01*
X17668138Y38256084D01*
X17852027Y38338027D01*
X17858105Y38338965D01*
X17863821Y38336690D01*
G37*
%TD.AperFunction*%
%TD*%
%TA.AperFunction,Conductor*%
%TO.N,GND*%
G36*
X11269748Y30329872D02*
G01*
X11273376Y30324888D01*
X11350207Y30122396D01*
X11350423Y30121773D01*
X11405843Y29946525D01*
X11405944Y29946190D01*
X11447858Y29798420D01*
X11488186Y29667928D01*
X11538913Y29544347D01*
X11612031Y29417271D01*
X11719558Y29276224D01*
X11865814Y29119025D01*
X11868946Y29110844D01*
X11865521Y29102782D01*
X11457218Y28694479D01*
X11449156Y28691054D01*
X11440975Y28694186D01*
X11283776Y28840442D01*
X11142729Y28947969D01*
X11015653Y29021087D01*
X10892072Y29071814D01*
X10761580Y29112142D01*
X10613810Y29154056D01*
X10613475Y29154157D01*
X10468544Y29199990D01*
X10438221Y29209579D01*
X10437610Y29209791D01*
X10235111Y29286625D01*
X10230128Y29290252D01*
X10227680Y29295911D01*
X10228447Y29302025D01*
X10527438Y30026216D01*
X10529979Y30030021D01*
X10533784Y30032562D01*
X11257975Y30331553D01*
X11264089Y30332320D01*
X11269748Y30329872D01*
G37*
%TD.AperFunction*%
%TD*%
%TA.AperFunction,Conductor*%
%TO.N,Net-(U1-O5)*%
G36*
X12035257Y10922520D02*
G01*
X12203233Y10774965D01*
X12252394Y10744743D01*
X12358402Y10679574D01*
X12501968Y10627413D01*
X12643370Y10602313D01*
X12791939Y10588113D01*
X12792136Y10588092D01*
X12956915Y10568674D01*
X12957961Y10568501D01*
X13148313Y10527815D01*
X13149672Y10527435D01*
X13364422Y10453160D01*
X13369586Y10449593D01*
X13372163Y10443870D01*
X13371412Y10437638D01*
X13072562Y9713788D01*
X13070020Y9709980D01*
X13066212Y9707438D01*
X12342362Y9408588D01*
X12336130Y9407837D01*
X12330407Y9410414D01*
X12326840Y9415579D01*
X12252565Y9630328D01*
X12252185Y9631687D01*
X12211499Y9822039D01*
X12211326Y9823085D01*
X12191908Y9987864D01*
X12191884Y9988094D01*
X12177687Y10136630D01*
X12152587Y10278032D01*
X12100426Y10421598D01*
X12005034Y10576768D01*
X11995066Y10588116D01*
X11857480Y10744743D01*
X11854576Y10752843D01*
X11857996Y10760737D01*
X12019263Y10922004D01*
X12027157Y10925424D01*
X12035257Y10922520D01*
G37*
%TD.AperFunction*%
%TD*%
M02*
